XXXXXXXXXXXXXXXXX
X.....XXXXX.....X
X.XXX.....L.XXX.X
X.XXXLXXXXX.XXX.X
X.XXX....X..XXX.X
X.XXX.XX.X.XXXX.X
X.....XX.X.XXXX.X
XX.XXXXX........X
XX.XXXXX.X.XXXX.X
XL.......X.X..X.X
X.XXKXX.XX.X..X.X
X.XMMMX.XX.X..D.X
X.XXXXX.XX.XXXX.X
X..............LX
XXXXXXXXXXXXXXXXX