XXXXXXXXXXXXXXXXX
X...XXXXX.......X
X.X.......XLXXX.X
X.XXX.XXXXX.XXX.X
X.X.........XXX.X
X.L.XXKXX.X.XXX.X
X.X.XMMMX.X.....X
X.X.XXXXX.XXXXX.X
X.X.............X
X.XX.XXX.XXXX.X.X
X.....LX.X..D.X.X
X.XXXX.X.X..X.X.X
X.XXXX.X.XXXX.X.X
X............L..X
XXXXXXXXXXXXXXXXX